<?xml version="1.0" encoding="UTF-8" standalone="no"?>
<!-- Created with Inkscape (http://www.inkscape.org/) -->

<svg
   xmlns:ns2="http://ns.adobe.com/Extensibility/1.0/"
   xmlns:ns1="http://ns.adobe.com/Flows/1.0/"
   xmlns:i="http://ns.adobe.com/AdobeIllustrator/10.0/"
   xmlns:dc="http://purl.org/dc/elements/1.1/"
   xmlns:cc="http://creativecommons.org/ns#"
   xmlns:rdf="http://www.w3.org/1999/02/22-rdf-syntax-ns#"
   xmlns:svg="http://www.w3.org/2000/svg"
   xmlns="http://www.w3.org/2000/svg"
   xmlns:xlink="http://www.w3.org/1999/xlink"
   xmlns:sodipodi="http://sodipodi.sourceforge.net/DTD/sodipodi-0.dtd"
   xmlns:inkscape="http://www.inkscape.org/namespaces/inkscape"
   width="744.09448819"
   height="1052.3622047"
   id="svg2"
   inkscape:label="Pozadí"
   version="1.1"
   inkscape:version="0.48.2 r9819"
   sodipodi:docname="level3-source.svg">
  <defs
     id="defs3" />
  <sodipodi:namedview
     id="base"
     pagecolor="#ffffff"
     bordercolor="#666666"
     borderopacity="1.0"
     inkscape:pageopacity="0.0"
     inkscape:pageshadow="2"
     inkscape:zoom="1.7965084"
     inkscape:cx="300.33802"
     inkscape:cy="801.90019"
     inkscape:document-units="mm"
     inkscape:current-layer="layer1"
     showgrid="true"
     showguides="true"
     inkscape:snap-global="false"
     inkscape:window-width="1440"
     inkscape:window-height="838"
     inkscape:window-x="-8"
     inkscape:window-y="-8"
     inkscape:window-maximized="1">
    <inkscape:grid
       type="xygrid"
       id="grid2984"
       empspacing="5"
       visible="true"
       enabled="true"
       snapvisiblegridlinesonly="true"
       units="mm"
       spacingx="2mm"
       spacingy="2mm"
       dotted="true" />
  </sodipodi:namedview>
  <metadata
     id="metadata6">
    <rdf:RDF>
      <cc:Work
         rdf:about="">
        <dc:format>image/svg+xml</dc:format>
        <dc:type
           rdf:resource="http://purl.org/dc/dcmitype/StillImage" />
        <dc:title />
      </cc:Work>
    </rdf:RDF>
  </metadata>
  <g
     inkscape:label="Vrstva 1"
     inkscape:groupmode="layer"
     id="layer1">
    <rect
       style="fill:none;stroke:#000000;stroke-width:1.25;stroke-miterlimit:4;stroke-opacity:1;stroke-dasharray:none"
       id="rect2996"
       width="105.04929"
       height="211.34697"
       x="284.71448"
       y="131.10234" />
    <rect
       style="fill:#ff7f7f;fill-opacity:1;stroke:#000000;stroke-width:0.62500000000000000;stroke-miterlimit:4;stroke-opacity:1;stroke-dasharray:none"
       id="rect3766"
       width="70.079933"
       height="56.192951"
       x="305.51062"
       y="230.8149" />
    <g
       transform="matrix(0,0.22655215,-0.42690446,0,375.98366,349.7816)"
       i:rgbTrio="#4F008000FFFF"
       i:dimmedPercent="3"
       i:layer="yes"
       id="image">
      <switch
         style="display:none"
         id="switch7"
         display="none"
         i:objectType="pointText"
         i:objectNS="http://ns.adobe.com/Flows/1.0/">
        <foreignObject
           id="foreignObject9"
           overflow="visible"
           display="inline"
           height="1"
           width="1"
           y="0"
           x="0"
           requiredExtensions="http://ns.adobe.com/Flows/1.0/">
          <ns1:flowDef>
            <ns1:region
               textMatrix="1 0 0 1 0 0">
              <ns1:path
                 d="M-37.6,148.4" />
            </ns1:region>
            <ns1:flow
               font-size="200"
               font-family="'LetterGothicStd'">
              <ns1:p>
                <ns1:span>}</ns1:span>
              </ns1:p>
              <ns1:p />
            </ns1:flow>
          </ns1:flowDef>
          <ns2:targetRef
             xlink:href="#XMLID_1_" />
        </foreignObject>
        <text
           style="display:inline"
           display="inline"
           transform="translate(-37.6001,148.4004)"
           id="XMLID_1_">
          <tspan
             style="font-size:200px;font-family:LetterGothicStd"
             id="tspan12"
             font-size="200"
             y="0"
             x="0">}</tspan>
        </text>
      </switch>
      <g
         i:knockout="Off"
         id="raster">
        <path
           inkscape:connector-curvature="0"
           id="path15"
           d="M 19.8,25.8 C 19.8,11.2 15.6,2.2 0,0.4 L 0.4,0 C 23,0.4 29.2,7.2 29.2,29 l 0,30.2 c 0,13.4 1.4,19.8 16,23.4 l 0,0.4 c -14.4,3.6 -16,10 -16,23.2 l 0,32.2 c 0,21 -7.8,27 -28.8,27.6 L 0,165.601 c 16,-2.4 19.8,-10.4 19.8,-25.601 l 0,-32.2 C 19.8,94.2 21.6,86.4 36.6,83 l 0,-0.4 C 21.4,79 19.8,70.6 19.8,57 l 0,-31.2 z"
           i:knockout="Off" />
      </g>
    </g>
    <text
       xml:space="preserve"
       style="font-size:11px;font-style:normal;font-weight:normal;line-height:125%;letter-spacing:0px;word-spacing:0px;fill:#000000;fill-opacity:1;stroke:none;font-family:Bitstream Vera Sans"
       x="412.54388"
       y="262.97137"
       id="text3997"
       sodipodi:linespacing="125%"><tspan
         sodipodi:role="line"
         x="412.54388"
         y="262.97137"
         id="tspan4017">$\melfourl H\bigr\rVert$</tspan></text>
    <text
       sodipodi:linespacing="125%"
       id="text4013"
       y="372.66812"
       x="340.61505"
       style="font-size:11px;font-style:normal;font-weight:normal;text-align:center;line-height:125%;letter-spacing:0px;word-spacing:0px;text-anchor:middle;fill:#000000;fill-opacity:1;stroke:none;font-family:Bitstream Vera Sans"
       xml:space="preserve"><tspan
         y="372.66812"
         x="340.61505"
         id="tspan4015"
         sodipodi:role="line">$\bigl\lVert H\melfourr$</tspan></text>
    <g
       transform="matrix(0,-0.22657509,-0.64035669,0,390.07447,123.58486)"
       i:rgbTrio="#4F008000FFFF"
       i:dimmedPercent="3"
       i:layer="yes"
       id="image-4">
      <switch
         style="display:none"
         id="switch7-0"
         display="none"
         i:objectType="pointText"
         i:objectNS="http://ns.adobe.com/Flows/1.0/">
        <foreignObject
           id="foreignObject9-9"
           overflow="visible"
           display="inline"
           height="1"
           width="1"
           y="0"
           x="0"
           requiredExtensions="http://ns.adobe.com/Flows/1.0/">
          <ns1:flowDef>
            <ns1:region
               textMatrix="1 0 0 1 0 0">
              <ns1:path
                 d="M-37.6,148.4" />
            </ns1:region>
            <ns1:flow
               font-size="200"
               font-family="'LetterGothicStd'">
              <ns1:p>
                <ns1:span>}</ns1:span>
              </ns1:p>
              <ns1:p />
            </ns1:flow>
          </ns1:flowDef>
          <ns2:targetRef
             xlink:href="#XMLID_1_-4" />
        </foreignObject>
        <text
           style="display:inline"
           display="inline"
           transform="translate(-37.6001,148.4004)"
           id="XMLID_1_-4">
          <tspan
             style="font-size:200px;font-family:LetterGothicStd"
             id="tspan12-8"
             font-size="200"
             y="0"
             x="0">}</tspan>
        </text>
      </switch>
      <g
         i:knockout="Off"
         id="raster-8">
        <path
           inkscape:connector-curvature="0"
           id="path15-2"
           d="M 19.8,25.8 C 19.8,11.2 15.6,2.2 0,0.4 L 0.4,0 C 23,0.4 29.2,7.2 29.2,29 l 0,30.2 c 0,13.4 1.4,19.8 16,23.4 l 0,0.4 c -14.4,3.6 -16,10 -16,23.2 l 0,32.2 c 0,21 -7.8,27 -28.8,27.6 L 0,165.601 c 16,-2.4 19.8,-10.4 19.8,-25.601 l 0,-32.2 C 19.8,94.2 21.6,86.4 36.6,83 l 0,-0.4 C 21.4,79 19.8,70.6 19.8,57 l 0,-31.2 z"
           i:knockout="Off" />
      </g>
    </g>
    <g
       id="g3983-4"
       i:layer="yes"
       i:dimmedPercent="3"
       i:rgbTrio="#4F008000FFFF"
       transform="matrix(-0.27189011,0,0,1.2807134,275.40089,131.10234)">
      <switch
         i:objectNS="http://ns.adobe.com/Flows/1.0/"
         i:objectType="pointText"
         display="none"
         id="switch3985-5"
         style="display:none">
        <foreignObject
           requiredExtensions="http://ns.adobe.com/Flows/1.0/"
           x="0"
           y="0"
           width="1"
           height="1"
           display="inline"
           overflow="visible"
           id="foreignObject3987-5">
          <ns1:flowDef>
            <ns1:region
               textMatrix="1 0 0 1 0 0">
              <ns1:path
                 d="M-37.6,148.4" />
            </ns1:region>
            <ns1:flow
               font-family="'LetterGothicStd'"
               font-size="200">
              <ns1:p>
                <ns1:span>}</ns1:span>
              </ns1:p>
              <ns1:p />
            </ns1:flow>
          </ns1:flowDef>
          <ns2:targetRef
             xlink:href="#XMLID_1_-4" />
        </foreignObject>
        <text
           id="text3989-1"
           transform="translate(-37.6001,148.4004)"
           display="inline"
           style="display:inline">
          <tspan
             x="0"
             y="0"
             font-size="200"
             id="tspan3991-7"
             style="font-size:200px;font-family:LetterGothicStd">}</tspan>
        </text>
      </switch>
      <g
         id="g3993-1"
         i:knockout="Off">
        <path
           i:knockout="Off"
           d="M 19.8,25.8 C 19.8,11.2 15.6,2.2 0,0.4 L 0.4,0 C 23,0.4 29.2,7.2 29.2,29 l 0,30.2 c 0,13.4 1.4,19.8 16,23.4 l 0,0.4 c -14.4,3.6 -16,10 -16,23.2 l 0,32.2 c 0,21 -7.8,27 -28.8,27.6 L 0,165.601 c 16,-2.4 19.8,-10.4 19.8,-25.601 l 0,-32.2 C 19.8,94.2 21.6,86.4 36.6,83 l 0,-0.4 C 21.4,79 19.8,70.6 19.8,57 l 0,-31.2 z"
           id="path3995-1"
           inkscape:connector-curvature="0" />
      </g>
    </g>
    <text
       xml:space="preserve"
       style="font-size:11px;font-style:normal;font-weight:normal;text-align:end;line-height:125%;letter-spacing:0px;word-spacing:0px;text-anchor:end;fill:#000000;fill-opacity:1;stroke:none;font-family:Bitstream Vera Sans"
       x="257.06839"
       y="240.90489"
       id="text3997-5"
       sodipodi:linespacing="125%"><tspan
         sodipodi:role="line"
         x="257.06839"
         y="240.90489"
         id="tspan4017-7">$\melthreel H\bigr\rVert$</tspan></text>
    <text
       sodipodi:linespacing="125%"
       id="text4013-6"
       y="105.61578"
       x="336.98932"
       style="font-size:11px;font-style:normal;font-weight:normal;text-align:center;line-height:125%;letter-spacing:0px;word-spacing:0px;text-anchor:middle;fill:#000000;fill-opacity:1;stroke:none;font-family:Bitstream Vera Sans"
       xml:space="preserve"><tspan
         y="105.61578"
         x="336.98932"
         id="tspan4015-1"
         sodipodi:role="line">$\bigl\lVert H\melthreer$</tspan></text>
    <g
       transform="matrix(0.22657509,0,0,0.34152357,396.71444,230.56491)"
       i:rgbTrio="#4F008000FFFF"
       i:dimmedPercent="3"
       i:layer="yes"
       id="g4079">
      <switch
         style="display:none"
         id="switch4081"
         display="none"
         i:objectType="pointText"
         i:objectNS="http://ns.adobe.com/Flows/1.0/">
        <foreignObject
           id="foreignObject4083"
           overflow="visible"
           display="inline"
           height="1"
           width="1"
           y="0"
           x="0"
           requiredExtensions="http://ns.adobe.com/Flows/1.0/">
          <ns1:flowDef>
            <ns1:region
               textMatrix="1 0 0 1 0 0">
              <ns1:path
                 d="M-37.6,148.4" />
            </ns1:region>
            <ns1:flow
               font-size="200"
               font-family="'LetterGothicStd'">
              <ns1:p>
                <ns1:span>}</ns1:span>
              </ns1:p>
              <ns1:p />
            </ns1:flow>
          </ns1:flowDef>
          <ns2:targetRef
             xlink:href="#XMLID_1_-4" />
        </foreignObject>
        <text
           style="display:inline"
           display="inline"
           transform="translate(-37.6001,148.4004)"
           id="text4085">
          <tspan
             style="font-size:200px;font-family:LetterGothicStd"
             id="tspan4087"
             font-size="200"
             y="0"
             x="0">}</tspan>
        </text>
      </switch>
      <g
         i:knockout="Off"
         id="g4089">
        <path
           inkscape:connector-curvature="0"
           id="path4091"
           d="M 19.8,25.8 C 19.8,11.2 15.6,2.2 0,0.4 L 0.4,0 C 23,0.4 29.2,7.2 29.2,29 l 0,30.2 c 0,13.4 1.4,19.8 16,23.4 l 0,0.4 c -14.4,3.6 -16,10 -16,23.2 l 0,32.2 c 0,21 -7.8,27 -28.8,27.6 L 0,165.601 c 16,-2.4 19.8,-10.4 19.8,-25.601 l 0,-32.2 C 19.8,94.2 21.6,86.4 36.6,83 l 0,-0.4 C 21.4,79 19.8,70.6 19.8,57 l 0,-31.2 z"
           i:knockout="Off" />
      </g>
    </g>
  </g>
</svg>
